Feature selection: Machine learning models
…
topImpoFeatPlots$fullImpoFeatTab

# A tibble: 101 × 4
   Feature    Annotation Cluster       PickRate
   <chr>      <chr>      <chr>            <dbl>
 1 P04259     KRT6B      P04264/P35527    0.901
 2 Q5T8I9     HENMT1     <NA>             0.891
 3 O95678     KRT75      <NA>             0.830
 4 Q5T3I0     GPATCH4    <NA>             0.751
 5 A0A0B4J1U3 IGLV1-36   <NA>             0.534
 6 Q9NZH6     IL37       <NA>             0.505
 7 P13727     PRG2       <NA>             0.461
 8 Q53QV2     LBH        <NA>             0.427
 9 P51911     CNN1       P53814/Q9BX66    0.398
10 Q9UBH6     XPR1       <NA>             0.386
# ℹ 91 more rows
…
